{
    "current_page": 1,
    "data": [
      {
        "id": 262,
        "name": "''",
        "text": "авпвап",
        "visible": 0,
        "product_id": 30,
        "created_at": "2021-06-23T08:29:22.000000Z",
        "updated_at": "2021-06-23T08:29:22.000000Z"
      },
      {
        "id": 263,
        "name": "dd",
        "text": "dd",
        "visible": 0,
        "product_id": 30,
        "created_at": "2021-06-23T09:20:50.000000Z",
        "updated_at": "2021-06-23T09:20:50.000000Z"
      },
      {
        "id": 264,
        "name": "dd",
        "text": "dd",
        "visible": 0,
        "product_id": 30,
        "created_at": "2021-06-23T09:21:00.000000Z",
        "updated_at": "2021-06-23T09:21:00.000000Z"
      },
      {
        "id": 265,
        "name": "dd",
        "text": "ddddddddddddddddddddddddddddddddddddddddddddddddddddddddddddddddddddddddddddddddddddddddddddddddddddd",
        "visible": 0,
        "product_id": 30,
        "created_at": "2021-06-23T09:21:16.000000Z",
        "updated_at": "2021-06-23T09:21:16.000000Z"
      },
      {
        "id": 266,
        "name": "dd",
        "text": "dd",
        "visible": 0,
        "product_id": 30,
        "created_at": "2021-06-23T09:21:26.000000Z",
        "updated_at": "2021-06-23T09:21:26.000000Z"
      },
      {
        "id": 267,
        "name": "dd",
        "text": "dd",
        "visible": 0,
        "product_id": 30,
        "created_at": "2021-06-23T09:21:30.000000Z",
        "updated_at": "2021-06-23T09:21:30.000000Z"
      },
      {
        "id": 268,
        "name": "dd",
        "text": "dd",
        "visible": 0,
        "product_id": 30,
        "created_at": "2021-06-23T09:21:32.000000Z",
        "updated_at": "2021-06-23T09:21:32.000000Z"
      },
      {
        "id": 269,
        "name": "dd",
        "text": "dd",
        "visible": 0,
        "product_id": 30,
        "created_at": "2021-06-23T09:21:34.000000Z",
        "updated_at": "2021-06-23T09:21:34.000000Z"
      },
      {
        "id": 270,
        "name": "dd",
        "text": "dd",
        "visible": 0,
        "product_id": 30,
        "created_at": "2021-06-23T09:21:41.000000Z",
        "updated_at": "2021-06-23T09:21:41.000000Z"
      },
      {
        "id": 271,
        "name": "dd",
        "text": "dd",
        "visible": 0,
        "product_id": 30,
        "created_at": "2021-06-23T09:21:43.000000Z",
        "updated_at": "2021-06-23T09:21:43.000000Z"
      }
    ],
    "first_page_url": "https://jordan.ashton.fashion/api/goods/30/comments?page=1",
    "from": 1,
    "last_page": 48,
    "last_page_url": "https://jordan.ashton.fashion/api/goods/30/comments?page=48",
    "links": [
      {
        "url": null,
        "label": "&laquo; Previous",
        "active": false
      },
      {
        "url": "https://jordan.ashton.fashion/api/goods/30/comments?page=1",
        "label": 1,
        "active": true
      },
      {
        "url": "https://jordan.ashton.fashion/api/goods/30/comments?page=2",
        "label": 2,
        "active": false
      },
      {
        "url": "https://jordan.ashton.fashion/api/goods/30/comments?page=3",
        "label": 3,
        "active": false
      },
      {
        "url": "https://jordan.ashton.fashion/api/goods/30/comments?page=4",
        "label": 4,
        "active": false
      },
      {
        "url": "https://jordan.ashton.fashion/api/goods/30/comments?page=5",
        "label": 5,
        "active": false
      },
      {
        "url": "https://jordan.ashton.fashion/api/goods/30/comments?page=6",
        "label": 6,
        "active": false
      },
      {
        "url": "https://jordan.ashton.fashion/api/goods/30/comments?page=7",
        "label": 7,
        "active": false
      },
      {
        "url": "https://jordan.ashton.fashion/api/goods/30/comments?page=8",
        "label": 8,
        "active": false
      },
      {
        "url": "https://jordan.ashton.fashion/api/goods/30/comments?page=9",
        "label": 9,
        "active": false
      },
      {
        "url": "https://jordan.ashton.fashion/api/goods/30/comments?page=10",
        "label": 10,
        "active": false
      },
      {
        "url": null,
        "label": "...",
        "active": false
      },
      {
        "url": "https://jordan.ashton.fashion/api/goods/30/comments?page=47",
        "label": 47,
        "active": false
      },
      {
        "url": "https://jordan.ashton.fashion/api/goods/30/comments?page=48",
        "label": 48,
        "active": false
      },
      {
        "url": "https://jordan.ashton.fashion/api/goods/30/comments?page=2",
        "label": "Next &raquo;",
        "active": false
      }
    ],
    "next_page_url": "https://jordan.ashton.fashion/api/goods/30/comments?page=2",
    "path": "https://jordan.ashton.fashion/api/goods/30/comments",
    "per_page": 10,
    "prev_page_url": null,
    "to": 10,
    "total": 476
  }